﻿{
  "version": "1.0.0-*",
  "description": "",
  "authors": [ "" ],
  "tags": [ "" ],
  "projectUrl": "",
  "licenseUrl": "",

  "dependencies": {
    "Oracle.ManagedDataAccess": "12.1.21",
    "Microsoft.Framework.Logging.Interfaces": "1.0.0-beta4"
  },

  "frameworks": {
    "dnx451": {
      "frameworkAssemblies": {
        "System.DirectoryServices": "4.0.0.0",
        "System.Data": "4.0.0.0"
      }
    }
    //"dnxcore50": {
    //  "dependencies": {
    //    "System.Collections": "4.0.10-beta-22816",
    //    "System.Linq": "4.0.0-beta-22816",
    //    "System.Threading": "4.0.10-beta-22816",
    //    "Microsoft.CSharp": "4.0.0-beta-22816"
    //  }
  }
} }
